5th Sem/EE380/EC Lab reports/Lab3 data/exp2data.csv

#Digilent WaveForms Oscilloscope Acquisition
#Device Name: Discovery3
#Serial Number: SN:210415BB611A
#Date Time: 2025-08-21 02:42:33.815.231.750
#Sample rate: 1.78571e+06Hz
#Samples: 16384
#Trigger: Source: Channel 1 Type: Edge Condition: Rising Level: 0 V Hyst.: Auto HoldOff: 0 s
#Channel 1: Range: 50 mV/div Offset: -584.2 mV Sample Mode: Average
#Channel 2: Range: 500 mV/div Offset: -2.463 V Sample Mode: Average
#Wavegen Channel 1: Running
#Mode: Simple
#Type: Sine
#Frequency: 1 kHz
#Period: 1 ms
#Amplitude: 2 V
#Offset: 2 V
#Symmetry: 50 %
#Phase: 0 °
#Power Supplies: ON
#Positive Supply: ON
#Voltage: 5 V Readback: 5.001738856 V
#Negative Supply: ON
#Voltage: -5 V Readback: -4.9929197678 V

Time (s),Channel 1 (V),Channel 2 (V)
-0.009008012721164613,0.6923942859566216,3.973112003837132
-0.009007452721164613,0.6926300009291669,3.97405678211905
-0.009006892721164613,0.6910585677788468,3.975395218018432
-0.009006332721164613,0.6911371394363641,3.976261264776856
-0.009005772721164613,0.6918442843540094,3.977520969152744
-0.009005212721164614,0.6924728576141369,3.978072089817194
-0.009004652721164614,0.691765712696492,3.97822955286418
-0.009004092721164614,0.6903514228612012,3.979567988763562
-0.009003532721164614,0.6915299977239436,3.980197840951507
-0.009002972721164614,0.6920799993265567,3.98130008228041
-0.009002412721164614,0.6923942859566204,3.981142619233426
-0.009001852721164615,0.6913728544089132,3.983110907320747
-0.009001292721164615,0.6909014244638152,3.983976954079172
-0.009000732721164615,0.6914514260664264,3.983740759508696
-0.009000172721164615,0.6925514292716517,3.985157926931568
-0.008999612721164615,0.6922371426415893,3.985472853025542
-0.008999052721164615,0.6910585677788478,3.986811288924923
-0.008998492721164614,0.6911371394363627,3.987441141112869
-0.008997932721164614,0.6920014276690405,3.987598604159856
-0.008997372721164614,0.6923157142991052,3.987598604159856
-0.008996812721164614,0.6918442843540082,3.9882284563478
-0.008996252721164614,0.6910585677788467,3.989409429200196
-0.008995692721164614,0.6916085693814609,3.990039281388141
-0.008995132721164614,0.6927871442442021,3.990196744435127
-0.008994572721164613,0.6926300009291685,3.989960549864649
-0.008994012721164613,0.6912157110938792,3.991377717287524
-0.008993452721164613,0.6916085693814601,3.992165032522452
-0.008992892721164613,0.6917657126964935,3.991771374904987
-0.008992332721164613,0.692551429271653,3.991535180334511
-0.008991772721164614,0.6921585709840732,3.992716153186904
-0.008991212721164614,0.6913728544089113,3.993897126039301
-0.008990652721164614,0.6912942827513952,3.993346005374849
-0.008990092721164614,0.6927085725866859,3.993503468421836
-0.008989532721164614,0.6925514292716537,3.993424736898342
-0.008988972721164614,0.6917657126964917,3.993424736898343
-0.008988412721164615,0.691451426066428,3.9938971260393
-0.008987852721164615,0.6924728576141356,3.99413332060978
-0.008987292721164615,0.6927085725866855,3.994054589086287
-0.008986732721164615,0.6920014276690418,3.994369515180259
-0.008986172721164615,0.6915299977239441,3.993739662992315
-0.008985612721164615,0.6917657126964918,3.994290783656766
-0.008985052721164614,0.692551429271653,3.994054589086287
-0.008984492721164614,0.6925514292716537,3.993897126039301
-0.008983932721164614,0.6916085693814598,3.994526978227245
-0.008983372721164614,0.6913728544089113,3.994920635844711
-0.008982812721164614,0.6920799993265567,3.994212052133273
-0.008982252721164614,0.6931800025317818,3.994054589086287
-0.008981692721164614,0.6920014276690396,3.994684441274231
-0.008981132721164613,0.6910585677788472,3.99413332060978
-0.008980572721164613,0.6916085693814603,3.993818394515808
-0.008980012721164613,0.6922371426415904,3.993975857562794
-0.008979452721164613,0.6930228592167488,3.994054589086287
-0.008978892721164613,0.6920014276690385,3.993975857562793
-0.008978332721164614,0.6909014244638153,3.993503468421836
-0.008977772721164614,0.6920799993265556,3.992873616233891
-0.008977212721164614,0.6921585709840729,3.99208630099896
-0.008976652721164614,0.6923157142991052,3.991692643381495
-0.008976092721164614,0.6918442843540082,3.992165032522453
-0.008975532721164614,0.691294282751396,3.991928837951973
-0.008974972721164615,0.6923157142991024,3.990747865099581
-0.008974412721164615,0.6929442875592333,3.989566892247184
-0.008973852721164615,0.6919228560115263,3.990196744435126
-0.008973292721164615,0.6911371394363642,3.989960549864648
-0.008972732721164615,0.6916871410389753,3.989173234629718
-0.008972172721164615,0.6925514292716529,3.987992261777322
-0.008971612721164614,0.6922371426415893,3.987913530253828
-0.008971052721164614,0.6908228528062995,3.98744114111287
-0.008970492721164614,0.6913728544089113,3.987126215018897
-0.008969932721164614,0.691765712696492,3.986338899783966
-0.008969372721164614,0.6925514292716537,3.984921732361091
-0.008968812721164614,0.6919228560115236,3.98492173236109
-0.008968252721164614,0.691058567778847,3.984606806267118
-0.008967692721164613,0.691451426066428,3.983819491032187
-0.008967132721164613,0.692001427669041,3.982402323609312
-0.008966572721164613,0.692551429271652,3.981378813803903
-0.008966012721164613,0.6916085693814591,3.981378813803901
-0.008965452721164613,0.69121571109388,3.98004037790452
-0.008964892721164613,0.6918442843540106,3.979882914857531
-0.008964332721164614,0.6927085725866852,3.978465747434661
-0.008963772721164614,0.6920799993265567,3.977835895246715
-0.008963212721164614,0.6912157110938789,3.976182533253361
-0.008962652721164614,0.6914514260664274,3.975788875635895
-0.008962092721164614,0.6920014276690408,3.974450439736512
-0.008961532721164614,0.69239428595662,3.973505661454596
-0.008960972721164615,0.690901424463817,3.973190735360625
-0.008960412721164615,0.6909799961213304,3.971616104890765
-0.008959852721164615,0.6918442843540067,3.970907521179326
-0.008959292721164615,0.692551429271653,3.969096696138986
-0.008958732721164615,0.6922371426415893,3.968388112427548
-0.008958172721164614,0.6910585677788478,3.96767952871611
-0.008957612721164614,0.6912942827513949,3.966262361293235
-0.008957052721164614,0.6920799993265567,3.964215341682414
-0.008956492721164614,0.692237142641589,3.963664221017963
-0.008955932721164614,0.6910585677788467,3.96279817425954
-0.008955372721164614,0.6905871378337505,3.961617201407141
-0.008954812721164614,0.6914514260664283,3.959885107890295
-0.008954252721164613,0.6924728576141369,3.958782866561391
-0.008953692721164613,0.6919228560115235,3.957050773044545
-0.008953132721164613,0.6909014244638156,3.956263457809612
-0.008952572721164613,0.6916085693814611,3.955003753433722
-0.008952012721164613,0.6923157142991062,3.952720539252423
-0.008951452721164613,0.6928657159017155,3.950909714212083
-0.008950892721164614,0.6918442843540091,3.94996493593017
-0.008950332721164614,0.6913728544089113,3.949098889171745
-0.008949772721164614,0.6920014276690405,3.947445527178391
-0.008949212721164614,0.6930228592167507,3.945241044520585
-0.008948652721164614,0.6923157142991043,3.943666414050722
-0.008948092721164614,0.6912942827513957,3.942091783580862
-0.008947532721164615,0.6918442843540072,3.941304468345933
-0.008946972721164615,0.6924728576141364,3.939257448735115
-0.008946412721164615,0.6922371426415894,3.937525355218268
-0.008945852721164615,0.6912157110938798,3.936186919318884
-0.008945292721164615,0.6916085693814594,3.934061168184571
-0.008944732721164615,0.6916871410389758,3.93248653771471
-0.008944172721164614,0.6923157142991047,3.929967128962932
-0.008943612721164614,0.6916085693814598,3.928549961540055
-0.008943052721164614,0.6908228528062982,3.927054062593687
-0.008942492721164614,0.6911371394363628,3.925479432123825
-0.008941932721164614,0.6920014276690405,3.923511144036499
-0.008941372721164614,0.6923157142991041,3.921306661378692
-0.008940812721164614,0.691058567778846,3.920125688526295
-0.008940252721164613,0.6902728512036858,3.917842474344996
-0.008939692721164613,0.6909799961213322,3.91595291778116
-0.008939132721164613,0.6919228560115239,3.913905898170339
-0.008938572721164613,0.6916871410389739,3.91130775789507
-0.008938012721164613,0.6905871378337497,3.909575664378222
-0.008937452721164614,0.6905871378337497,3.907686107814394
-0.008936892721164614,0.6916871410389759,3.905875282774051
-0.008936332721164614,0.692237142641589,3.904143189257204
-0.008935772721164614,0.6912157110938789,3.901938706599398
-0.008935212721164614,0.6906657094912658,3.899655492418099
-0.008934652721164614,0.6905085661762347,3.897529741283784
-0.008934092721164615,0.6916871410389738,3.89493160100852
-0.008933532721164615,0.6916871410389759,3.892963312921192
-0.008932972721164615,0.6904299945187197,3.891309950927837
-0.008932412721164615,0.6905085661762335,3.889656588934483
-0.008931852721164615,0.6910585677788461,3.886900985612225
-0.008931292721164615,0.6916871410389753,3.883909187719488
-0.008930732721164614,0.6909799961213312,3.882098362679147
-0.008930172721164614,0.6905871378337497,3.87965768545086
-0.008929612721164614,0.6904299945187173,3.877689397363533
-0.008929052721164614,0.6913728544089113,3.874618867947304
-0.008928492721164614,0.691765712696492,3.871390875484088
-0.008927932721164614,0.6908228528062978,3.869973708061211
-0.008927372721164614,0.6904299945187177,3.868084151497376
-0.008926812721164613,0.6908228528062991,3.865171085128133
-0.008926252721164613,0.6917657126964917,3.862336750282381
-0.008925692721164613,0.6916085693814576,3.860053536101082
-0.008925132721164613,0.6904299945187178,3.857849053443275
-0.008924572721164613,0.6906657094912664,3.855250913168003
-0.008924012721164614,0.6909799961213302,3.852180383751782
-0.008923452721164614,0.6916085693814598,3.849267317382536
-0.008922892721164614,0.6905871378337497,3.847220297771716
-0.008922332721164614,0.6901157078886527,3.844307231402473
-0.008921772721164614,0.6901942795461689,3.841472896556722
-0.008921212721164614,0.6918442843540078,3.838796024757956
-0.008920652721164615,0.6913728544089122,3.836119152959199
-0.008920092721164615,0.6901157078886551,3.833521012683927
-0.008919532721164615,0.6905085661762329,3.830686677838178
-0.008918972721164615,0.6913728544089097,3.828167269086398
-0.008918412721164615,0.6916085693814595,3.824939276623181
-0.008917852721164615,0.6905085661762346,3.822183673300923
-0.008917292721164614,0.690037136231137,3.819428069978666
-0.008916732721164614,0.6905871378337497,3.816672466656406
-0.008916172721164614,0.6910585677788467,3.812814622005246
-0.008915612721164614,0.6906657094912658,3.810531407823947
-0.008915052721164614,0.6899585645736204,3.808169462119155
-0.008914492721164614,0.690115707888653,3.804705275085456
-0.008913932721164614,0.6903514228612018,3.801319819575255
-0.008913372721164613,0.6909014244638138,3.797698169494575
-0.008912812721164613,0.6902728512036841,3.795021297695807
-0.008912252721164613,0.6897228496010732,3.792344425897043
-0.008911692721164613,0.6904299945187184,3.78974628562177
-0.008911132721164613,0.691058567778847,3.785967172494104
-0.008910572721164614,0.6912157110938788,3.78281791155439
-0.008910012721164614,0.6901942795461689,3.779826113661651
-0.008909452721164614,0.6899585645736204,3.7769917788159
-0.008908892721164614,0.6905871378337497,3.773606323305698
-0.008908332721164614,0.6912157110938789,3.769669747131045
-0.008907772721164614,0.6906657094912647,3.767386532949743
-0.008907212721164615,0.6894871346285255,3.763843614392564
-0.008906652721164615,0.6900371362311356,3.760851816499827
-0.008906092721164615,0.6909014244638128,3.75730889794264
-0.008905532721164615,0.6903514228612022,3.754317100049902
-0.008904972721164615,0.6891728479984599,3.75124657063367
-0.008904412721164615,0.6888585613683945,3.747624920552989
-0.008903852721164614,0.6893299913134907,3.744003270472308
-0.008903292721164614,0.6905085661762336,3.740066694297651
-0.008902732721164614,0.6897228496010719,3.736838701834436
-0.008902172721164614,0.6886228463958457,3.734319293082657
-0.008901612721164614,0.6887014180533618,3.731091300619441
-0.008901052721164614,0.689487134628524,3.727469650538757
-0.008900492721164614,0.6901157078886518,3.723611805887597
-0.008899932721164613,0.689094276340942,3.720226350377395
-0.008899372721164613,0.6883085597657821,3.716604700296714
-0.008898812721164613,0.6894085629710086,3.712589392598565
-0.008898252721164613,0.6901157078886516,3.70912520556487
-0.008897692721164613,0.689487134628522,3.705661018531174
-0.008897132721164614,0.6887014180533625,3.701645710833038
-0.008896572721164614,0.6883871314232972,3.698811375987284
-0.008896012721164614,0.6893299913134912,3.694638605242152
-0.008895452721164614,0.6898799929161042,3.689914713832567
-0.008894892721164614,0.6890157046834265,3.686686721369352
-0.008894332721164614,0.6884657030808136,3.683537460429625
-0.008893772721164615,0.6886228463958454,3.679679615778476
-0.008893212721164615,0.6898799929161019,3.675506845033344
-0.008892652721164615,0.6895657062860402,3.671412805811704
-0.008892092721164615,0.6886228463958474,3.667318766590065
-0.008891532721164615,0.6885442747383297,3.664090774126845
-0.008890972721164615,0.6891728479984582,3.660547855569657
-0.008890412721164614,0.6900371362311358,3.656296353301032
-0.008889852721164614,0.6893299913134918,3.652359777126378
-0.008889292721164614,0.6883871314232972,3.6486593955222
-0.008888732721164614,0.6883871314232972,3.64480155087104
-0.008888172721164614,0.6894085629710073,3.640156390984949
-0.008887612721164614,0.6893299913134903,3.635983620239813
-0.008887052721164614,0.6883085597657812,3.632598164729611
-0.008886492721164613,0.6884657030808138,3.628897783125437
-0.008885932721164613,0.6888585613683954,3.624882475427289
-0.008885372721164613,0.6901942795461674,3.620001120970716
-0.008884812721164613,0.6894085629710054,3.615828350225585
-0.008884252721164613,0.6883871314232973,3.61212796862141
-0.008883692721164614,0.6884657030808133,3.608191392446767
-0.008883132721164614,0.6891728479984581,3.603782427131156
-0.008882572721164614,0.6898014212585881,3.599767119433005
-0.008882012721164614,0.6887799897108781,3.595751811734859
-0.008881452721164614,0.6879942731357165,3.591579040989727
-0.008880892721164614,0.6883085597657816,3.586776418056645
-0.008880332721164615,0.6888585613683926,3.582524915788035
-0.008879772721164615,0.6885442747383301,3.578194681995913
-0.008879212721164615,0.6876014148481373,3.574258105821259
-0.008878652721164615,0.6875228431906196,3.569927872029141
-0.008878092721164615,0.6884657030808126,3.565518906713525
-0.008877532721164615,0.689015704683426,3.560165163115997
-0.008876972721164614,0.6881514164507495,3.556858439129287
-0.008876412721164614,0.6879942731357166,3.552685668384155
-0.008875852721164614,0.6880728447932326,3.548119240021553
-0.008875292721164614,0.6891728479984588,3.543237885564983
-0.008874732721164614,0.6889371330259103,3.538671457202385
-0.008874172721164614,0.6876799865056517,3.534498686457248
-0.008873612721164614,0.6875228431906201,3.529538600477186
-0.008873052721164613,0.6881514164507493,3.52583821887301
-0.008872492721164613,0.6887799897108774,3.520641938322469
-0.008871932721164613,0.6880728447932311,3.516390436053839
-0.008871372721164613,0.6872085565605554,3.511902739214734
-0.008870812721164613,0.687522843190622,3.50717884780515
-0.008870252721164613,0.6888585613683933,3.502612419442547
-0.008869692721164614,0.6885442747383299,3.498045991079966
-0.008869132721164614,0.687287128218071,3.49284971052942
-0.008868572721164614,0.687287128218071,3.489149328925246
-0.008868012721164614,0.6875228431906195,3.484110511421689
-0.008867452721164614,0.6883871314232968,3.47883549934765
-0.008866892721164614,0.6879157014781997,3.474111607938065
-0.008866332721164615,0.6872871282180721,3.469702642622466
-0.008865772721164615,0.6868942699304909,3.465529871877333
-0.008865212721164615,0.6880728447932305,3.460333591326792
-0.008864652721164615,0.6885442747383291,3.455688431440696
-0.008864092721164615,0.6879157014782008,3.450334687843168
-0.008863532721164614,0.6871299849030393,3.445768259480569
-0.008862972721164614,0.6872085565605547,3.440965636547493
-0.008862412721164614,0.6879942731357165,3.436005550567425
-0.008861852721164614,0.6878371298206841,3.430336880875924
-0.008861292721164614,0.6868156982729741,3.425849184036819
-0.008860732721164614,0.6868156982729743,3.421204024150723
-0.008860172721164614,0.6870514132455232,3.415535354459223
-0.008859612721164613,0.6878371298206832,3.41081146304964
-0.008859052721164613,0.6868156982729736,3.40648122925752
-0.008858492721164613,0.6863442683278781,3.401836069371425
-0.008857932721164613,0.6868942699304913,3.396954714914854
-0.008857372721164613,0.6875228431906208,3.391364776746847
-0.008856812721164613,0.6882299881082613,3.386168496196301
-0.008856252721164614,0.6868942699304914,3.381444604786734
-0.008855692721164614,0.6864228399853932,3.376799444900638
-0.008855132721164614,0.6867371266154578,3.371524432826603
-0.008854572721164614,0.6878371298206841,3.366485615323047
-0.008854012721164614,0.6870514132455215,3.360816945631541
-0.008853452721164614,0.6859514100402966,3.355699396604492
-0.008852892721164615,0.6861871250128443,3.350581847577456
-0.008852332721164615,0.687287128218069,3.345149372456435
-0.008851772721164615,0.6876799865056511,3.340031823429385
-0.008851212721164615,0.6863442683278783,3.335622858113768
-0.008850652721164615,0.6860299816978128,3.330505309086719
-0.008850092721164615,0.6860299816978125,3.324836639395219
-0.008849532721164614,0.6866585549579411,3.319719090368169
-0.008848972721164614,0.6869728415880063,3.31420788372365
-0.008848412721164614,0.6863442683278771,3.309247797743587
-0.008847852721164614,0.6861871250128447,3.303736591099072
-0.008847292721164614,0.6865799833004256,3.299012699689488
-0.008846732721164614,0.687601414848135,3.292556714763051
-0.008846172721164614,0.6868942699304894,3.287360434212509
-0.008845612721164613,0.6860299816978124,3.282400348232446
-0.008845052721164613,0.685872838382781,3.277440262252378
-0.008844492721164613,0.6863442683278774,3.27216525017834
-0.008843932721164613,0.6865014116429078,3.265709265251911
-0.008843372721164613,0.6855585517527149,3.260591716224861
-0.008842812721164614,0.685165693465135,3.255552898721319
-0.008842252721164614,0.6856371234102316,3.249726765982828
-0.008841692721164614,0.6865014116429095,3.244058096291327
-0.008841132721164614,0.6861085533553286,3.238625621170305
-0.008840572721164614,0.6854014084376832,3.233586803666749
-0.008840012721164614,0.6853228367801676,3.228390523116201
-0.008839452721164615,0.6859514100402953,3.221855806666294
-0.008838892721164615,0.6868942699304885,3.215950942404312
-0.008838332721164615,0.68571569506775,3.210675930330276
-0.008837772721164615,0.6855585517527159,3.205873307397198
-0.008837212721164615,0.685165693465135,3.200283369229186
-0.008836652721164615,0.6855585517527152,3.194299773443714
-0.008836092721164614,0.686029981697812,3.188867298322692
-0.008835532721164614,0.6851656934651347,3.182962434060706
-0.008834972721164614,0.6844585485474892,3.176978838275233
-0.008834412721164614,0.6851656934651347,3.171782557724691
-0.008833852721164614,0.6860299816978125,3.165720230415725
-0.008833292721164614,0.6851656934651343,3.160209023771205
-0.008832732721164614,0.6847728351775541,3.154225427985732
-0.008832172721164613,0.6849299784925867,3.149186610482175
-0.008831612721164613,0.6855585517527166,3.142888088602724
-0.008831052721164613,0.6861871250128433,3.137061955864239
-0.008830492721164613,0.6854014084376818,3.13202313836068
-0.008829932721164613,0.6846942635200383,3.12556715343425
-0.008829372721164614,0.6850085501501021,3.119898483742765
-0.008828812721164614,0.685322836780167,3.1137574249103
-0.008828252721164614,0.6856371234102316,3.107537634554348
-0.008827692721164614,0.6840656902599085,3.102026427909833
-0.008827132721164614,0.6836728319723276,3.09706634192977
-0.008826572721164614,0.6837514036298452,3.091633866808742
-0.008826012721164615,0.6851656934651321,3.084626761217878
-0.008825452721164615,0.6846156918625226,3.078485702385417
