5th Sem/EE380/EC Lab reports/Lab3 data/exp3data.csv

#Digilent WaveForms Oscilloscope Acquisition
#Device Name: Discovery3
#Serial Number: SN:210415BB611A
#Date Time: 2025-08-21 02:50:48.660.143.130
#Sample rate: 1.78571e+06Hz
#Samples: 16384
#Trigger: Source: Channel 1 Type: Edge Condition: Rising Level: 0 V Hyst.: Auto HoldOff: 0 s
#Channel 1: Range: 1 V/div Offset: -1.5 V Sample Mode: Average
#Channel 2: Range: 2 V/div Offset: -3.032 V Sample Mode: Average
#Wavegen Channel 1: Running
#Mode: Simple
#Type: Sine
#Frequency: 1 kHz
#Period: 1 ms
#Amplitude: 2.5 V
#Offset: 2.5 V
#Symmetry: 50 %
#Phase: 0 °
#Power Supplies: ON
#Positive Supply: ON
#Voltage: 5 V Readback: 5.001738856 V
#Negative Supply: ON
#Voltage: -5 V Readback: -4.9934086062 V

Time (s),Channel 1 (V),Channel 2 (V)
-0.009008012721164613,0.176470772810372,5.018718048978367
-0.009007452721164613,0.1710726249050222,5.020521119477416
-0.009006892721164613,0.1674738596347934,5.024127260475497
-0.009006332721164613,0.1656744769996758,5.023225725225974
-0.009005772721164613,0.1629754030470018,5.021422654726926
-0.009005212721164614,0.1602763290943352,5.018718048978368
-0.009004652721164614,0.1566775638241007,5.016914978479321
-0.009004092721164614,0.1584769464592166,5.017816513728842
-0.009003532721164614,0.1539784898714267,5.022324189976454
-0.009002972721164614,0.1548781811889848,5.024127260475499
-0.009002412721164614,0.1503797246011906,5.019619584227884
-0.009001852721164615,0.1458812680134127,5.016914978479326
-0.009001292721164615,0.1413828114256228,5.020521119477404
-0.009000732721164615,0.142282502743171,5.016914978479327
-0.009000172721164615,0.1350849722027216,5.018718048978362
-0.008999612721164615,0.1350849722027085,5.016914978479322
-0.008999052721164615,0.1359846635202658,5.020521119477406
-0.008998492721164614,0.1305865156149233,5.022324189976453
-0.008997932721164614,0.1251883677095704,5.017816513728842
-0.008997372721164614,0.1287871329798025,5.016914978479321
-0.008996812721164614,0.1260880590271285,5.016013443229798
-0.008996252721164614,0.1260880590271285,5.017816513728842
-0.008995692721164614,0.1206899111217805,5.021422654726929
-0.008995132721164614,0.1206899111217822,5.018718048978364
-0.008994572721164613,0.1224892937568915,5.017816513728847
-0.008994012721164613,0.1170911458515411,5.022324189976455
-0.008993452721164613,0.1089939239935344,5.023225725225979
-0.008992892721164613,0.113492380581318,5.024127260475499
-0.008992332721164613,0.1143920718988597,5.024127260475511
-0.008991772721164614,0.1062948500408596,5.030438007222151
-0.008991212721164614,0.1044954674057363,5.025930330974544
-0.008990652721164614,0.1017963934530624,5.025930330974544
-0.008990092721164614,0.1017963934530624,5.022324189976454
-0.008989532721164614,0.09999701081794621,5.023225725225977
-0.008988972721164614,0.1008967021354985,5.022324189976459
-0.008988412721164615,0.09459886291260969,5.026831866224058
-0.008987852721164615,0.09549855423015466,5.025028795725025
-0.008987292721164615,0.09729793686526894,5.026831866224063
-0.008986732721164615,0.09189978895993406,5.023225725225983
-0.008986172721164615,0.09189978895992423,5.027733401473585
-0.008985612721164615,0.09189978895992423,5.025028795725024
-0.008985052721164614,0.08380256710190941,5.025930330974544
-0.008984492721164614,0.08560194973701654,5.027733401473587
-0.008983932721164614,0.08560194973701818,5.022324189976454
-0.008983372721164614,0.08380256710190204,5.027733401473589
-0.008982812721164614,0.08560194973701818,5.021422654726932
-0.008982252721164614,0.07750472787899762,5.024127260475496
-0.008981692721164614,0.07930411051411376,5.021422654726932
-0.008981132721164613,0.08110349314921986,5.022324189976458
-0.008980572721164613,0.07210657997364964,5.02593033097454
-0.008980012721164613,0.07390596260876742,5.021422654726932
-0.008979452721164613,0.07570534524387351,5.021422654726937
-0.008978892721164613,0.07210657997364964,5.024127260475497
-0.008978332721164614,0.07300627129120525,5.023225725225978
-0.008977772721164614,0.06850781470342003,5.022324189976455
-0.008977212721164614,0.07480565392632199,5.027733401473589
-0.008976652721164614,0.07300627129120607,5.023225725225977
-0.008976092721164614,0.07120688865609015,5.026831866224066
-0.008975532721164614,0.06940750602097401,5.023225725225979
-0.008974972721164615,0.06940750602097401,5.025028795725016
-0.008974412721164615,0.06670843206830493,5.027733401473584
-0.008973852721164615,0.06760812338585645,5.02953647197263
-0.008973292721164615,0.06580874075074522,5.026831866224072
-0.008972732721164615,0.06310966679807041,5.026831866224066
-0.008972172721164615,0.06670843206829674,5.02863493672311
-0.008971612721164614,0.0685078147034143,5.031339542471676
-0.008971052721164614,0.06400935811563012,5.028634936723114
-0.008970492721164614,0.06220997548050988,5.029536471972634
-0.008969932721164614,0.06400935811562602,5.028634936723112
-0.008969372721164614,0.0568118275751619,5.02052111947741
-0.008968812721164614,0.06310966679807041,5.02773340147359
-0.008968252721164614,0.06580874075074276,5.028634936723107
-0.008967692721164613,0.06670843206829838,5.0241272604755
-0.008967132721164613,0.06490904943318164,5.025028795725023
-0.008966572721164613,0.06220997548050497,5.026831866224068
-0.008966012721164613,0.05951090152783917,5.027733401473587
-0.008965452721164613,0.0613102841629504,5.02683186622406
-0.008964892721164613,0.06041059284538169,5.023225725225972
-0.008964332721164614,0.05591213625760792,5.021422654726933
-0.008963772721164614,0.06041059284539396,5.021422654726932
-0.008963212721164614,0.06131028416295203,5.028634936723112
-0.008962652721164614,0.0568118275751619,5.025028795725022
-0.008962092721164614,0.05501244494004762,5.023225725225977
-0.008961532721164614,0.05681182757516599,5.023225725225982
-0.008960972721164615,0.06131028416294385,5.028634936723102
-0.008960412721164615,0.05861121021028295,5.027733401473591
-0.008959852721164615,0.05501244494005252,5.026831866224068
-0.008959292721164615,0.05321306230493147,5.024127260475502
-0.008958732721164615,0.05591213625760137,5.027733401473585
-0.008958172721164614,0.05951090152783262,5.026831866224067
-0.008957612721164614,0.05411275362249282,5.023225725225981
-0.008957052721164614,0.05591213625760383,5.023225725225977
-0.008956492721164614,0.0568118275751619,5.023225725225977
-0.008955932721164614,0.05951090152783589,5.026831866224066
-0.008955372721164614,0.05501244494004434,5.027733401473585
-0.008954812721164614,0.05321306230493884,5.023225725225977
-0.008954252721164613,0.06310966679806877,5.02322572522598
-0.008953692721164613,0.06400935811562357,5.025930330974549
-0.008953132721164613,0.06131028416295858,5.030438007222153
-0.008952572721164613,0.06490904943318082,5.028634936723112
-0.008952012721164613,0.06310966679804995,5.0286349367231
-0.008951452721164613,0.05321306230496175,5.022324189976471
-0.008950892721164614,0.06490904943317347,5.028634936723106
-0.008950332721164614,0.06131028416295203,5.025028795725022
-0.008949772721164614,0.06580874075074195,5.028634936723112
-0.008949212721164614,0.06310966679806795,5.025028795725022
-0.008948652721164614,0.06580874075073867,5.03043800722215
-0.008948092721164614,0.06220997548051398,5.023225725225977
-0.008947532721164615,0.06670843206829183,5.023225725225977
-0.008946972721164615,0.05951090152784898,5.02683186622406
-0.008946412721164615,0.06131028416294876,5.025028795725025
-0.008945852721164615,0.06760812338585236,5.029536471972629
-0.008945292721164615,0.06850781470341512,5.029536471972634
-0.008944732721164615,0.06760812338585891,5.025930330974548
-0.008944172721164614,0.07030719733852962,5.026831866224065
-0.008943612721164614,0.06580874075074195,5.025930330974544
-0.008943052721164614,0.07120688865609015,5.026831866224066
-0.008942492721164614,0.07390596260876414,5.022324189976454
-0.008941932721164614,0.072106579973648,5.030438007222156
-0.008941372721164614,0.07210657997364882,5.020521119477415
-0.008940812721164614,0.07300627129121016,5.025930330974544
-0.008940252721164613,0.07750472787899353,5.025930330974544
-0.008939692721164613,0.07480565392633018,5.025028795725025
-0.008939132721164613,0.07930411051410721,5.026831866224068
-0.008938572721164613,0.07660503656143977,5.027733401473589
-0.008938012721164613,0.07750472787899762,5.027733401473584
-0.008937452721164614,0.07840441919655323,5.025028795725024
-0.008936892721164614,0.0802038018316702,5.026831866224066
-0.008936332721164614,0.08380256710190204,5.027733401473589
-0.008935772721164614,0.09189978895992423,5.025930330974544
-0.008935212721164614,0.0874013323721341,5.026831866224066
-0.008934652721164614,0.08560194973701654,5.025028795725023
-0.008934092721164615,0.08380256710190531,5.025930330974543
-0.008933532721164615,0.08650164105457134,5.025028795725023
-0.008932972721164615,0.08920071500724533,5.026831866224063
-0.008932412721164615,0.09189978895991932,5.026831866224066
-0.008931852721164615,0.09189978895992423,5.025028795725023
-0.008931292721164615,0.09189978895992423,5.030438007222151
-0.008930732721164614,0.09369917159503852,5.028634936723114
-0.008930172721164614,0.1017963934530624,5.028634936723112
-0.008929612721164614,0.09729793686527222,5.026831866224066
-0.008929052721164614,0.1008967021355043,5.025028795725022
-0.008928492721164614,0.1008967021355043,5.028634936723112
-0.008927932721164614,0.1080942326759758,5.027733401473588
-0.008927372721164614,0.1161914545339887,5.026831866224062
-0.008926812721164613,0.1143920718988728,5.022324189976457
-0.008926252721164613,0.1125926892637583,5.025028795725018
-0.008925692721164613,0.1125926892637632,5.023225725225983
-0.008925132721164613,0.1152917632164159,5.026831866224068
-0.008924572721164613,0.1062948500408752,5.027733401473578
-0.008924012721164614,0.1188905284866529,5.021422654726937
-0.008923452721164614,0.1242886763920124,5.018718048978365
-0.008922892721164614,0.1278874416622444,5.018718048978365
-0.008922332721164614,0.1296868242973606,5.021422654726932
-0.008921772721164614,0.1350849722027085,5.022324189976454
-0.008921212721164614,0.1395834287904944,5.024127260475496
-0.008920652721164615,0.1350849722027167,5.021422654726937
-0.008920092721164615,0.135984663520265,5.025028795725015
-0.008919532721164615,0.1440818853782738,5.025028795725022
-0.008918972721164615,0.1395834287905066,5.018718048978377
-0.008918412721164615,0.146780959330956,5.024127260475494
-0.008917852721164615,0.1476806506485198,5.025930330974543
-0.008917292721164614,0.1494800332836349,5.02322572522598
-0.008916732721164614,0.1521791072363106,5.023225725225977
-0.008916172721164614,0.1593766377767747,5.026831866224066
-0.008915612721164614,0.1602763290943328,5.024127260475499
-0.008915052721164614,0.1602763290943328,5.022324189976454
-0.008914492721164614,0.1602763290943393,5.021422654726934
-0.008913932721164614,0.1674738596347975,5.024127260475503
-0.008913372721164613,0.1683735509523555,5.027733401473584
-0.008912812721164613,0.1692732422699259,5.021422654726938
-0.008912252721164613,0.1764707728103753,5.025028795725018
-0.008911692721164613,0.175571081492827,5.023225725225979
-0.008911132721164613,0.1800695380806071,5.024127260475493
-0.008910572721164614,0.1791698467630517,5.020521119477413
-0.008910012721164614,0.1782701554454929,5.021422654726932
-0.008909452721164614,0.1872670686210729,5.025930330974544
-0.008908892721164614,0.1872670686210729,5.023225725225977
-0.008908332721164614,0.1890664512561888,5.027733401473589
-0.008907772721164614,0.1926652165264225,5.023225725225977
-0.008907212721164615,0.1944645991615337,5.023225725225977
-0.008906652721164615,0.194464599161537,5.023225725225977
-0.008906092721164615,0.1971636731142061,5.024127260475497
-0.008905532721164615,0.2016621297019927,5.022324189976458
-0.008904972721164615,0.2088596602424585,5.016914978479326
-0.008904412721164615,0.2088596602424651,5.022324189976449
-0.008903852721164614,0.2070602776073508,5.022324189976454
-0.008903292721164614,0.2133581168302552,5.02052111947741
-0.008902732721164614,0.214257808147813,5.017816513728842
-0.008902172721164614,0.2214553386882772,5.021422654726932
-0.008901612721164614,0.2277531779111832,5.023225725225977
-0.008901052721164614,0.2286528692287454,5.023225725225974
-0.008900492721164614,0.233151325816532,5.019619584227888
-0.008899932721164613,0.234051017134095,5.020521119477411
-0.008899372721164613,0.2403488563569994,5.021422654726935
-0.008898812721164613,0.2448473129447836,5.02502879572502
-0.008898252721164613,0.2439476216272356,5.024127260475499
-0.008897692721164613,0.2484460782150255,5.024127260475497
-0.008897132721164614,0.2529445348028033,5.023225725225978
-0.008896572721164614,0.2583426827081554,5.022324189976454
-0.008896012721164614,0.2583426827081554,5.024127260475499
-0.008895452721164614,0.2556436087554814,5.021422654726932
-0.008894892721164614,0.2619414479783875,5.019619584227887
-0.008894332721164614,0.2709383611539732,5.025028795725021
-0.008893772721164615,0.2772362003768621,5.024127260475501
-0.008893212721164615,0.2754368177417609,5.021422654726937
-0.008892652721164615,0.2790355830119829,5.025028795725015
-0.008892092721164615,0.2817346569646588,5.024127260475501
-0.008891532721164615,0.2844337309173353,5.024127260475499
-0.008890972721164615,0.2871328048700093,5.024127260475499
-0.008890412721164614,0.2925309527753548,5.027733401473585
-0.008889852721164614,0.2952300267280312,5.025028795725024
-0.008889292721164614,0.2979291006807077,5.026831866224066
-0.008888732721164614,0.3042269399036137,5.026831866224066
-0.008888172721164614,0.3087253964914038,5.024127260475499
-0.008887612721164614,0.3114244704440762,5.021422654726933
-0.008887052721164614,0.3096250878089668,5.023225725225974
-0.008886492721164613,0.3150232357143156,5.02052111947741
-0.008885932721164613,0.3213210749372192,5.020521119477412
-0.008885372721164613,0.3249198402074693,5.023225725225982
-0.008884812721164613,0.3366158273357004,5.025930330974546
-0.008884252721164613,0.3357161360181521,5.026831866224066
-0.008883692721164614,0.34021459260593,5.026831866224066
-0.008883132721164614,0.3474121231463915,5.018718048978372
-0.008882572721164614,0.3492115057815142,5.023225725225977
-0.008882012721164614,0.3492115057815142,5.026831866224066
-0.008881452721164614,0.3510108884166301,5.022324189976454
-0.008880892721164614,0.3636065668624422,5.028634936723107
-0.008880332721164615,0.3636065668624422,5.024127260475511
-0.008879772721164615,0.3690047147677804,5.023225725225979
-0.008879212721164615,0.3762022453082412,5.023225725225977
-0.008878652721164615,0.3780016279433669,5.022324189976456
-0.008878092721164615,0.381600393213599,5.01961958422789
-0.008877532721164615,0.3869985411189456,5.024127260475495
-0.008876972721164614,0.3950957629769651,5.025028795725021
-0.008876412721164614,0.3950957629769725,5.025930330974544
-0.008875852721164614,0.3959954542945305,5.022324189976454
-0.008875292721164614,0.4112902066930166,5.024127260475499
-0.008874732721164614,0.4058920587876684,5.025028795725022
-0.008874172721164614,0.4094908240579079,5.023225725225976
-0.008873612721164614,0.4175880459159276,5.022324189976457
-0.008873052721164613,0.4229861938212723,5.025028795725023
-0.008872492721164613,0.4247855764563915,5.025930330974544
-0.008871932721164613,0.4301837243617512,5.025930330974551
-0.008871372721164613,0.4391806375373116,5.02953647197263
-0.008870812721164613,0.4373812549022134,5.027733401473584
-0.008870252721164613,0.4454784767602283,5.025028795725022
-0.008869692721164614,0.4481775507128924,5.025028795725022
-0.008869132721164614,0.4535756986182429,5.024127260475499
-0.008868572721164614,0.4562747725709169,5.027733401473589
-0.008868012721164614,0.4643719944289391,5.024127260475499
-0.008867452721164614,0.4715695249694103,5.025028795725023
-0.008866892721164614,0.4796667468274276,5.026831866224065
-0.008866332721164615,0.4823658207800943,5.025028795725025
-0.008865772721164615,0.4868642773678809,5.027733401473584
-0.008865212721164615,0.4895633513205582,5.025028795725027
-0.008864652721164615,0.4940618079083491,5.027733401473586
-0.008864092721164615,0.497660573178582,5.025028795725024
-0.008863532721164614,0.5030587210839284,5.027733401473586
-0.008862972721164614,0.5066574863541621,5.026831866224067
-0.008862412721164614,0.5102562516243973,5.024127260475499
-0.008861852721164614,0.5183534734824193,5.025028795725022
-0.008861292721164614,0.5219522387526514,5.025930330974544
-0.008860732721164614,0.5255510040228892,5.029536471972632
-0.008860172721164614,0.5318488432457944,5.02773340147359
-0.008859612721164613,0.5372469911511399,5.028634936723113
-0.008859052721164613,0.5399460651038173,5.02953647197263
-0.008858492721164613,0.5462439043267175,5.025930330974543
-0.008857932721164613,0.5462439043267355,5.025028795725023
-0.008857372721164613,0.5561405088198688,5.025930330974546
-0.008856812721164613,0.5633380393603344,5.026831866224072
-0.008856252721164614,0.5687361872656629,5.02863493672311
-0.008855692721164614,0.5732346438534578,5.025028795725022
-0.008855132721164614,0.5831312483465958,5.030438007222156
-0.008854572721164614,0.5867300136168279,5.026831866224066
-0.008854012721164614,0.5957269267924145,5.025930330974541
-0.008853452721164614,0.6029244573328753,5.02232418997645
-0.008852892721164615,0.6065232226030974,5.01781651372885
-0.008852332721164615,0.606523222603104,5.018718048978363
-0.008851772721164615,0.6173195184137804,5.016914978479324
-0.008851212721164615,0.6200185923664717,5.022324189976449
-0.008850652721164615,0.6263164315893744,5.023225725225976
-0.008850092721164615,0.6317145794947233,5.016914978479326
-0.008849532721164614,0.6380124187176285,5.011505766982191
-0.008848972721164614,0.6434105666229822,5.012407302231708
-0.008848412721164614,0.6515077884810043,5.007899625984096
-0.008847852721164614,0.6542068624336784,5.005195020235528
-0.008847292721164614,0.6587053190214684,5.003391949736484
-0.008846732721164614,0.6668025408794945,5.001588879237435
-0.008846172721164614,0.6713009974672853,4.997081202989823
-0.008845612721164613,0.6766991453726351,4.992573526742209
-0.008845052721164613,0.6838966759131008,4.986262779995548
-0.008844492721164613,0.688395132500894,4.980853568498408
-0.008843932721164613,0.694692971723805,4.972739751252712
-0.008843372721164613,0.7036898848993786,4.967330539755593
-0.008842812721164614,0.7090880328047119,4.970035145504152
-0.008842252721164614,0.7153858720276228,4.961921328258453
-0.008841692721164614,0.7153858720276228,4.958315187260363
-0.008841132721164614,0.7216837112505289,4.952004440513706
-0.008840572721164614,0.729780933108551,4.948398299515617
-0.008840012721164614,0.7342793896963459,4.943890623267993
-0.008839452721164615,0.7396775376016792,4.931269129774714
-0.008838892721164615,0.7477747594596963,4.924958383028046
-0.008838332721164615,0.7522732160474929,4.919549171530909
-0.008837772721164615,0.7567716726352829,4.914139960033775
-0.008837212721164615,0.7684676597635346,4.909632283786157
-0.008836652721164615,0.772066425033774,4.905124607538546
-0.008836092721164614,0.775665190304006,4.895207719793803
-0.008835532721164614,0.7792639555742413,4.888896973047138
-0.008834972721164614,0.7900602513849374,4.880783155801436
-0.008834412721164614,0.7963580906078435,4.878078550052869
-0.008833852721164614,0.8071543864185395,4.866358591809077
-0.008833292721164614,0.8116528430063353,4.859146309812896
-0.008832732721164614,0.8179506822292397,4.857343239313842
-0.008832172721164613,0.8224491388170339,4.844721745820534
-0.008831612721164613,0.8314460519926025,4.838410999073867
-0.008831052721164613,0.829646669357506,4.829395646578649
-0.008830492721164613,0.8386435825330714,4.823986435081508
-0.008829932721164613,0.8395432738506491,4.814971082586297
-0.008829372721164614,0.8512392609788711,4.813168012087257
-0.008828812721164614,0.8593364828369039,4.801448053843464
-0.008828252721164614,0.8602361741544619,4.79603884234633
-0.008827692721164614,0.8665340133773679,4.788826560350151
-0.008827132721164614,0.876430617870506,4.778909672605404
-0.008826572721164614,0.8800293831407479,4.771697390609217
